%!PS-Adobe-3.0 EPSF-3.0
%%Creator: cairo 1.8.8 (http://cairographics.org)
%%CreationDate: Wed Jan 15 09:23:06 2020
%%Pages: 1
%%BoundingBox: 0 0 327 69
%%DocumentData: Clean7Bit
%%LanguageLevel: 2
%%EndComments
%%BeginProlog
/cairo_eps_state save def
/dict_count countdictstack def
/op_count count 1 sub def
userdict begin
/q { gsave } bind def
/Q { grestore } bind def
/cm { 6 array astore concat } bind def
/w { setlinewidth } bind def
/J { setlinecap } bind def
/j { setlinejoin } bind def
/M { setmiterlimit } bind def
/d { setdash } bind def
/m { moveto } bind def
/l { lineto } bind def
/c { curveto } bind def
/h { closepath } bind def
/re { exch dup neg 3 1 roll 5 3 roll moveto 0 rlineto
      0 exch rlineto 0 rlineto closepath } bind def
/S { stroke } bind def
/f { fill } bind def
/f* { eofill } bind def
/B { fill stroke } bind def
/B* { eofill stroke } bind def
/n { newpath } bind def
/W { clip } bind def
/W* { eoclip } bind def
/BT { } bind def
/ET { } bind def
/pdfmark where { pop globaldict /?pdfmark /exec load put }
    { globaldict begin /?pdfmark /pop load def /pdfmark
    /cleartomark load def end } ifelse
/BDC { mark 3 1 roll /BDC pdfmark } bind def
/EMC { mark /EMC pdfmark } bind def
/cairo_store_point { /cairo_point_y exch def /cairo_point_x exch def } def
/Tj { show currentpoint cairo_store_point } bind def
/TJ {
  {
    dup
    type /stringtype eq
    { show } { -0.001 mul 0 cairo_font_matrix dtransform rmoveto } ifelse
  } forall
  currentpoint cairo_store_point
} bind def
/cairo_selectfont { cairo_font_matrix aload pop pop pop 0 0 6 array astore
    cairo_font exch selectfont cairo_point_x cairo_point_y moveto } bind def
/Tf { pop /cairo_font exch def /cairo_font_matrix where
      { pop cairo_selectfont } if } bind def
/Td { matrix translate cairo_font_matrix matrix concatmatrix dup
      /cairo_font_matrix exch def dup 4 get exch 5 get cairo_store_point
      /cairo_font where { pop cairo_selectfont } if } bind def
/Tm { 2 copy 8 2 roll 6 array astore /cairo_font_matrix exch def
      cairo_store_point /cairo_font where { pop cairo_selectfont } if } bind def
/g { setgray } bind def
/rg { setrgbcolor } bind def
/d1 { setcachedevice } bind def
%%EndProlog
%%Page: 1 1
%%BeginPageSetup
%%PageBoundingBox: 0 0 327 69
%%EndPageSetup
q
0.266667 0.258824 0.258824 rg
5.402 31.377 m 0.738 35.373 l 0.953 35.627 22.301 60.526 26.742 65.549 
c 29.242 68.373 33.078 69.455 36.289 68.24 c 39.508 67.022 41.43 63.787 
41.43 59.592 c 35.285 59.592 l 35.285 60.33 35.172 62.092 34.113 62.494 
c 33.418 62.756 32.242 62.494 31.348 61.479 c 26.938 56.49 5.621 31.627 
5.402 31.377 c h
5.402 31.377 m f
0.227451 0.219608 0.223529 rg
88.805 31.377 m 88.59 31.627 67.273 56.49 62.863 61.479 c 61.965 62.494 
60.789 62.756 60.094 62.494 c 59.039 62.092 58.926 60.33 58.926 59.592 
c 52.781 59.592 l 52.781 63.787 54.703 67.022 57.918 68.24 c 61.133 
69.455 64.969 68.373 67.465 65.549 c 71.906 60.526 93.254 35.627 93.469 
35.373 c 88.805 31.377 l h
88.805 31.377 m f
0.737255 0.909804 0.968627 rg
69.121 0.901 m 61.941 0.901 56.68 2.447 53.035 5.631 c 49.812 8.444 
48.609 11.877 47.73 14.385 c 47.543 14.92 47.316 15.572 47.105 16.069 c 
46.895 15.572 46.664 14.92 46.477 14.385 c 45.598 11.877 44.395 8.444 
41.176 5.631 c 37.527 2.447 32.266 0.901 25.086 0.901 c 18.559 0.901 
12.324 3.061 7.527 6.983 c 2.742 10.897 0 16.143 0 21.369 c 0 36.447 l 
94.207 36.447 l 94.207 21.369 l 94.207 16.143 91.465 10.897 86.68 6.983 
c 81.887 3.061 75.648 0.901 69.121 0.901 c h
69.121 0.901 m f
0.686275 0.85098 0.909804 rg
47.105 36.447 m 47.105 16.069 l 47.316 15.572 47.543 14.92 47.73 14.385 
c 48.609 11.877 49.812 8.444 53.035 5.631 c 56.68 2.447 61.941 0.901 
69.121 0.901 c 75.648 0.901 81.887 3.061 86.68 6.983 c 91.465 10.897 
94.207 16.143 94.207 21.369 c 94.207 36.447 l 47.105 36.447 l h
47.105 36.447 m f
0.380392 0.635294 0.937255 rg
0 36.447 m 94.207 36.447 l 94.207 30.721 l 0 30.721 l 0 36.447 l h
0 36.447 m f
0.321569 0.541176 0.811765 rg
47.105 36.447 m 94.207 36.447 l 94.207 30.721 l 47.105 30.721 l 47.105 
36.447 l h
47.105 36.447 m f
1 g
77.359 7.803 m 75.43 13.635 l 78.91 14.783 81.832 17.088 83.25 19.799 c 
88.695 16.951 l 86.523 12.799 82.391 9.467 77.359 7.803 c h
77.359 7.803 m f
0.701961 0.184314 0.14902 rg
23.332 20.44 m 22.66 24.08 20.582 25.846 16.941 25.846 c 14.707 25.846 
12.926 25.143 11.691 23.783 c 10.191 22.143 9.379 19.783 9.379 17.112 c 
9.379 14.377 10.223 12.033 11.785 10.424 c 13.051 9.112 14.691 8.502 
16.848 8.502 c 20.895 8.502 23.16 10.674 23.66 15.065 c 21.488 15.065 l 
21.301 13.924 21.082 13.158 20.738 12.487 c 20.051 11.127 18.645 10.362 
16.879 10.362 c 13.582 10.362 11.488 12.987 11.488 17.127 c 11.488 
21.377 13.488 23.987 16.691 23.987 c 18.035 23.987 19.285 23.58 19.957 
22.94 c 20.582 22.377 20.91 21.674 21.16 20.44 c 23.332 20.44 l h
23.332 20.44 m f
32.465 25.846 m 27.715 25.846 24.48 22.346 24.48 17.174 c 24.48 11.987 
27.715 8.502 32.48 8.502 c 34.48 8.502 36.277 9.112 37.621 10.252 c 
39.418 11.768 40.48 14.33 40.48 17.033 c 40.48 22.377 37.324 25.846 
32.465 25.846 c h
32.465 23.987 m 36.043 23.987 38.371 21.268 38.371 17.08 c 38.371 13.08 
35.98 10.362 32.48 10.362 c 28.965 10.362 26.59 13.08 26.59 17.174 c 
26.59 21.268 28.965 23.987 32.465 23.987 c h
32.465 23.987 m f
0 g
67.539 25.908 m 65.648 25.908 l 65.648 19.752 l 64.852 20.955 63.586 
21.596 61.992 21.596 c 58.898 21.596 56.883 19.112 56.883 15.315 c 
56.883 11.299 58.852 8.83 62.055 8.83 c 63.695 8.83 64.836 9.44 65.852 
10.908 c 65.852 9.346 l 67.539 9.346 l 67.539 25.908 l h
62.305 19.815 m 64.352 19.815 65.648 18.002 65.648 15.158 c 65.648 
12.408 64.336 10.596 62.336 10.596 c 60.242 10.596 58.852 12.44 58.852 
15.205 c 58.852 17.987 60.242 19.815 62.305 19.815 c h
62.305 19.815 m f
83.281 14.658 m 83.281 16.487 83.141 17.565 82.797 18.455 c 82.031 
20.408 80.219 21.596 77.984 21.596 c 74.672 21.596 72.531 19.049 72.531 
15.143 c 72.531 11.237 74.594 8.83 77.938 8.83 c 80.672 8.83 82.547 
10.362 83.031 12.955 c 81.125 12.955 l 80.594 11.393 79.531 10.58 
78.016 10.58 c 76.812 10.58 75.781 11.112 75.141 12.112 c 74.688 12.799 
74.531 13.487 74.516 14.658 c 83.281 14.658 l h
74.562 16.205 m 74.719 18.408 76.062 19.846 77.969 19.846 c 79.828 
19.846 81.25 18.299 81.25 16.346 c 81.25 16.299 81.25 16.252 81.234 
16.205 c 74.562 16.205 l h
74.562 16.205 m f
111.391 43.225 m 118.125 43.225 l 119.797 43.225 121.125 43.772 122.281 
44.881 c 123.578 46.162 124.125 47.678 124.125 49.819 c 124.125 54.194 
121.75 56.662 117.516 56.662 c 108.641 56.662 l 108.641 33.334 l 
111.391 33.334 l 111.391 43.225 l h
111.391 45.85 m 111.391 54.037 l 117.094 54.037 l 119.719 54.037 
121.281 52.506 121.281 49.944 c 121.281 47.381 119.719 45.85 117.094 
45.85 c 111.391 45.85 l h
111.391 45.85 m f
124.191 50.1 m 124.191 33.334 l 126.66 33.334 l 126.66 42.037 l 126.66 
44.444 127.223 46.006 128.395 46.928 c 129.16 47.537 129.895 47.74 
131.613 47.772 c 131.613 50.49 l 131.191 50.553 130.988 50.584 130.66 
50.584 c 129.082 50.584 127.863 49.553 126.457 47.069 c 126.457 50.1 l 
124.191 50.1 l h
124.191 50.1 m f
149.297 50.584 m 144.984 50.584 142.359 47.225 142.359 41.584 c 142.359 
35.959 144.953 32.6 149.328 32.6 c 153.656 32.6 156.312 35.959 156.312 
41.459 c 156.312 47.256 153.75 50.584 149.297 50.584 c h
149.328 48.115 m 152.094 48.115 153.75 45.647 153.75 41.49 c 153.75 
37.553 152.047 35.069 149.328 35.069 c 146.594 35.069 144.922 37.522 
144.922 41.584 c 144.922 45.615 146.594 48.115 149.328 48.115 c h
149.328 48.115 m f
178.445 50.1 m 178.445 47.678 l 177.211 49.647 175.711 50.584 173.742 
50.584 c 169.82 50.584 167.18 46.865 167.18 41.428 c 167.18 38.678 
167.852 36.444 169.117 34.834 c 170.258 33.428 171.914 32.6 173.539 
32.6 c 175.477 32.6 176.836 33.49 178.211 35.6 c 178.211 34.74 l 
178.211 32.475 177.945 31.1 177.336 30.162 c 176.68 29.178 175.414 28.6 
173.914 28.6 c 172.789 28.6 171.789 28.912 171.117 29.49 c 170.555 
29.975 170.32 30.428 170.18 31.412 c 167.68 31.412 l 167.945 28.24 
170.211 26.365 173.82 26.365 c 176.117 26.365 178.102 27.162 179.102 
28.506 c 180.273 30.037 180.711 32.147 180.711 36.084 c 180.711 50.1 l 
178.445 50.1 l h
174.008 48.115 m 176.648 48.115 178.211 45.694 178.211 41.49 c 178.211 
37.49 176.617 35.069 174.039 35.069 c 171.352 35.069 169.742 37.522 
169.742 41.584 c 169.742 45.615 171.383 48.115 174.008 48.115 c h
174.008 48.115 m f
188.961 50.1 m 188.961 33.334 l 191.43 33.334 l 191.43 42.037 l 191.43 
44.444 191.992 46.006 193.164 46.928 c 193.93 47.537 194.664 47.74 
196.383 47.772 c 196.383 50.49 l 195.961 50.553 195.758 50.584 195.43 
50.584 c 193.852 50.584 192.633 49.553 191.227 47.069 c 191.227 50.1 l 
188.961 50.1 l h
188.961 50.1 m f
221.812 34.897 m 221.547 34.834 221.422 34.834 221.281 34.834 c 220.422 
34.834 219.953 35.319 219.953 36.147 c 219.953 46.006 l 219.953 48.975 
217.953 50.584 214.156 50.584 c 211.922 50.584 210.062 49.881 209.031 
48.631 c 208.328 47.772 208.031 46.803 207.969 45.147 c 210.453 45.147 
l 210.656 47.194 211.766 48.115 214.062 48.115 c 216.281 48.115 217.516 
47.225 217.516 45.615 c 217.516 44.912 l 217.516 43.803 216.891 43.319 
214.953 43.069 c 211.484 42.584 210.953 42.459 210 42.037 c 208.219 
41.24 207.297 39.74 207.297 37.553 c 207.297 34.522 209.234 32.6 
212.359 32.6 c 214.312 32.6 215.859 33.334 217.609 35.069 c 217.781 
33.365 218.547 32.6 220.141 32.6 c 220.641 32.6 221.016 32.662 221.812 
32.881 c 221.812 34.897 l h
217.516 38.615 m 217.516 37.725 217.281 37.178 216.547 36.444 c 215.547 
35.444 214.328 34.928 212.891 34.928 c 210.984 34.928 209.859 35.928 
209.859 37.615 c 209.859 39.381 210.953 40.272 213.562 40.694 c 216.156 
41.084 216.688 41.209 217.516 41.615 c 217.516 38.615 l h
217.516 38.615 m f
228.734 50.1 m 228.734 33.334 l 231.203 33.334 l 231.203 43.865 l 
231.203 46.287 232.828 48.24 234.828 48.24 c 236.656 48.24 237.688 
47.037 237.688 44.881 c 237.688 33.334 l 240.156 33.334 l 240.156 
43.865 l 240.156 46.287 241.766 48.24 243.781 48.24 c 245.578 48.24 
246.625 46.99 246.625 44.881 c 246.625 33.334 l 249.109 33.334 l 
249.109 45.912 l 249.109 48.912 247.516 50.584 244.625 50.584 c 242.562 
50.584 241.328 49.912 239.891 48.022 c 238.984 49.819 237.734 50.584 
235.734 50.584 c 233.672 50.584 232.328 49.756 231 47.74 c 231 50.1 l 
228.734 50.1 l h
228.734 50.1 m f
253.758 50.1 m 253.758 33.334 l 256.227 33.334 l 256.227 43.865 l 
256.227 46.287 257.852 48.24 259.852 48.24 c 261.68 48.24 262.711 
47.037 262.711 44.881 c 262.711 33.334 l 265.18 33.334 l 265.18 43.865 
l 265.18 46.287 266.789 48.24 268.805 48.24 c 270.602 48.24 271.648 
46.99 271.648 44.881 c 271.648 33.334 l 274.133 33.334 l 274.133 45.912 
l 274.133 48.912 272.539 50.584 269.648 50.584 c 267.586 50.584 266.352 
49.912 264.914 48.022 c 264.008 49.819 262.758 50.584 260.758 50.584 c 
258.695 50.584 257.352 49.756 256.023 47.74 c 256.023 50.1 l 253.758 
50.1 l h
253.758 50.1 m f
281.141 50.1 m 278.688 50.1 l 278.688 33.334 l 281.141 33.334 l 281.141 
50.1 l h
281.141 56.662 m 278.656 56.662 l 278.656 53.303 l 281.141 53.303 l 
281.141 56.662 l h
281.141 56.662 m f
286.879 50.1 m 286.879 33.334 l 289.348 33.334 l 289.348 42.584 l 
289.348 46.006 291.004 48.24 293.535 48.24 c 295.473 48.24 296.707 
46.959 296.707 44.944 c 296.707 33.334 l 299.16 33.334 l 299.16 46.006 
l 299.16 48.787 297.238 50.584 294.27 50.584 c 291.973 50.584 290.504 
49.615 289.145 47.287 c 289.145 50.1 l 286.879 50.1 l h
286.879 50.1 m f
319.02 50.1 m 319.02 47.678 l 317.785 49.647 316.285 50.584 314.316 
50.584 c 310.395 50.584 307.754 46.865 307.754 41.428 c 307.754 38.678 
308.426 36.444 309.691 34.834 c 310.832 33.428 312.488 32.6 314.113 
32.6 c 316.051 32.6 317.41 33.49 318.785 35.6 c 318.785 34.74 l 318.785 
32.475 318.52 31.1 317.91 30.162 c 317.254 29.178 315.988 28.6 314.488 
28.6 c 313.363 28.6 312.363 28.912 311.691 29.49 c 311.129 29.975 
310.895 30.428 310.754 31.412 c 308.254 31.412 l 308.52 28.24 310.785 
26.365 314.395 26.365 c 316.691 26.365 318.676 27.162 319.676 28.506 c 
320.848 30.037 321.285 32.147 321.285 36.084 c 321.285 50.1 l 319.02 
50.1 l h
314.582 48.115 m 317.223 48.115 318.785 45.694 318.785 41.49 c 318.785 
37.49 317.191 35.069 314.613 35.069 c 311.926 35.069 310.316 37.522 
310.316 41.584 c 310.316 45.615 311.957 48.115 314.582 48.115 c h
314.582 48.115 m f
232.25 23.127 m 230.078 23.127 l 230.078 6.33 l 232.25 6.33 l 232.25 
23.127 l h
232.25 23.127 m f
249.316 7.455 m 249.082 7.408 248.973 7.408 248.848 7.408 c 248.098 
7.408 247.676 7.752 247.676 8.362 c 247.676 15.455 l 247.676 17.596 
245.91 18.752 242.566 18.752 c 240.598 18.752 238.973 18.252 238.066 
17.346 c 237.441 16.721 237.176 16.033 237.129 14.83 c 239.301 14.83 l 
239.488 16.315 240.473 16.971 242.488 16.971 c 244.441 16.971 245.52 
16.33 245.52 15.174 c 245.52 14.674 l 245.52 13.862 244.988 13.518 
243.27 13.33 c 240.207 12.987 239.738 12.893 238.91 12.596 c 237.332 
12.018 236.535 10.94 236.535 9.377 c 236.535 7.19 238.238 5.799 240.988 
5.799 c 242.707 5.799 244.066 6.33 245.598 7.58 c 245.754 6.346 246.426 
5.799 247.832 5.799 c 248.27 5.799 248.613 5.846 249.316 6.002 c 
249.316 7.455 l h
245.52 10.127 m 245.52 9.487 245.316 9.096 244.676 8.565 c 243.785 
7.846 242.723 7.487 241.457 7.487 c 239.77 7.487 238.785 8.19 238.785 
9.424 c 238.785 10.69 239.738 11.33 242.051 11.627 c 244.332 11.908 
244.801 12.002 245.52 12.299 c 245.52 10.127 l h
245.52 10.127 m f
250.211 18.408 m 250.211 6.33 l 252.383 6.33 l 252.383 12.987 l 252.383 
15.455 253.836 17.065 256.07 17.065 c 257.789 17.065 258.867 16.143 
258.867 14.69 c 258.867 6.33 l 261.023 6.33 l 261.023 15.455 l 261.023 
17.455 259.336 18.752 256.727 18.752 c 254.695 18.752 253.398 18.065 
252.211 16.377 c 252.211 18.408 l 250.211 18.408 l h
250.211 18.408 m f
272.047 18.408 m 272.047 16.658 l 270.953 18.08 269.625 18.752 267.891 
18.752 c 264.438 18.752 262.109 16.08 262.109 12.158 c 262.109 10.174 
262.703 8.565 263.828 7.408 c 264.828 6.393 266.281 5.799 267.703 5.799 
c 269.422 5.799 270.609 6.44 271.828 7.971 c 271.828 7.346 l 271.828 
5.705 271.594 4.721 271.047 4.049 c 270.484 3.33 269.375 2.924 268.047 
2.924 c 267.062 2.924 266.188 3.143 265.578 3.565 c 265.094 3.908 
264.891 4.237 264.75 4.94 c 262.547 4.94 l 262.781 2.658 264.781 1.299 
267.969 1.299 c 269.984 1.299 271.734 1.877 272.609 2.846 c 273.641 
3.955 274.031 5.471 274.031 8.315 c 274.031 18.408 l 272.047 18.408 l h
268.125 16.971 m 270.453 16.971 271.828 15.221 271.828 12.205 c 271.828 
9.33 270.438 7.58 268.156 7.58 c 265.797 7.58 264.359 9.346 264.359 
12.283 c 264.359 15.174 265.812 16.971 268.125 16.971 c h
268.125 16.971 m f
286.82 6.33 m 286.82 18.408 l 284.664 18.408 l 284.664 11.565 l 284.664 
9.096 283.211 7.487 280.961 7.487 c 279.242 7.487 278.164 8.408 278.164 
9.862 c 278.164 18.408 l 276.008 18.408 l 276.008 9.096 l 276.008 7.096 
277.695 5.799 280.336 5.799 c 282.336 5.799 283.602 6.424 284.867 8.018 
c 284.867 6.33 l 286.82 6.33 l h
286.82 6.33 m f
301.805 7.455 m 301.57 7.408 301.461 7.408 301.336 7.408 c 300.586 
7.408 300.164 7.752 300.164 8.362 c 300.164 15.455 l 300.164 17.596 
298.398 18.752 295.055 18.752 c 293.086 18.752 291.461 18.252 290.555 
17.346 c 289.93 16.721 289.664 16.033 289.617 14.83 c 291.789 14.83 l 
291.977 16.315 292.961 16.971 294.977 16.971 c 296.93 16.971 298.008 
16.33 298.008 15.174 c 298.008 14.674 l 298.008 13.862 297.477 13.518 
295.758 13.33 c 292.695 12.987 292.227 12.893 291.398 12.596 c 289.82 
12.018 289.023 10.94 289.023 9.377 c 289.023 7.19 290.727 5.799 293.477 
5.799 c 295.195 5.799 296.555 6.33 298.086 7.58 c 298.242 6.346 298.914 
5.799 300.32 5.799 c 300.758 5.799 301.102 5.846 301.805 6.002 c 
301.805 7.455 l h
298.008 10.127 m 298.008 9.487 297.805 9.096 297.164 8.565 c 296.273 
7.846 295.211 7.487 293.945 7.487 c 292.258 7.487 291.273 8.19 291.273 
9.424 c 291.273 10.69 292.227 11.33 294.539 11.627 c 296.82 11.908 
297.289 12.002 298.008 12.299 c 298.008 10.127 l h
298.008 10.127 m f
311.574 18.408 m 311.574 16.658 l 310.48 18.08 309.152 18.752 307.418 
18.752 c 303.965 18.752 301.637 16.08 301.637 12.158 c 301.637 10.174 
302.23 8.565 303.355 7.408 c 304.355 6.393 305.809 5.799 307.23 5.799 c 
308.949 5.799 310.137 6.44 311.355 7.971 c 311.355 7.346 l 311.355 
5.705 311.121 4.721 310.574 4.049 c 310.012 3.33 308.902 2.924 307.574 
2.924 c 306.59 2.924 305.715 3.143 305.105 3.565 c 304.621 3.908 
304.418 4.237 304.277 4.94 c 302.074 4.94 l 302.309 2.658 304.309 1.299 
307.496 1.299 c 309.512 1.299 311.262 1.877 312.137 2.846 c 313.168 
3.955 313.559 5.471 313.559 8.315 c 313.559 18.408 l 311.574 18.408 l h
307.652 16.971 m 309.98 16.971 311.355 15.221 311.355 12.205 c 311.355 
9.33 309.965 7.58 307.684 7.58 c 305.324 7.58 303.887 9.346 303.887 
12.283 c 303.887 15.174 305.34 16.971 307.652 16.971 c h
307.652 16.971 m f
327.145 11.721 m 327.145 13.565 326.988 14.674 326.598 15.565 c 325.723 
17.549 323.645 18.752 321.113 18.752 c 317.316 18.752 314.879 16.174 
314.879 12.205 c 314.879 8.237 317.238 5.799 321.051 5.799 c 324.16 
5.799 326.316 7.362 326.863 10.002 c 324.676 10.002 l 324.082 8.408 
322.863 7.58 321.129 7.58 c 319.754 7.58 318.598 8.127 317.863 9.143 c 
317.348 9.83 317.16 10.518 317.145 11.721 c 327.145 11.721 l h
317.191 13.283 m 317.379 15.533 318.91 16.971 321.082 16.971 c 323.207 
16.971 324.832 15.408 324.832 13.424 c 324.832 13.377 324.832 13.33 
324.816 13.283 c 317.191 13.283 l h
317.191 13.283 m f
0.87451 0.360784 0.305882 rg
207.363 14.108 m 215.074 21.819 l 215.445 22.186 215.445 22.795 215.074 
23.162 c 214.402 23.834 l 214.035 24.201 213.43 24.201 213.059 23.834 c 
205.348 16.123 l 197.637 23.834 l 197.27 24.201 196.66 24.201 196.293 
23.834 c 195.621 23.162 l 195.254 22.795 195.254 22.186 195.621 21.819 
c 203.332 14.108 l 195.621 6.393 l 195.254 6.026 195.254 5.416 195.621 
5.049 c 196.293 4.377 l 196.66 4.01 197.27 4.01 197.637 4.377 c 205.348 
12.088 l 213.059 4.377 l 213.43 4.01 214.035 4.01 214.402 4.377 c 
215.074 5.049 l 215.445 5.416 215.445 6.026 215.074 6.393 c 207.363 
14.108 l h
207.363 14.108 m f
0.890196 0.427451 0.376471 rg
198.547 21.803 m 205.348 15.002 l 212.148 21.803 l 213.043 22.697 l 
213.41 23.065 l 213.57 23.225 213.844 23.225 214.004 23.065 c 214.309 
22.764 l 214.469 22.604 214.469 22.33 214.309 22.17 c 206.227 14.088 l 
214.309 6.01 l 214.469 5.85 214.469 5.576 214.309 5.416 c 214.004 5.115 
l 213.844 4.955 213.57 4.955 213.41 5.115 c 205.332 13.194 l 197.254 
5.115 l 197.094 4.955 196.82 4.955 196.66 5.115 c 196.355 5.416 l 
196.195 5.576 196.195 5.85 196.355 6.01 c 204.438 14.088 l 196.355 
22.17 l 196.195 22.33 196.195 22.604 196.355 22.764 c 196.66 23.065 l 
196.82 23.225 197.094 23.225 197.254 23.065 c 197.621 22.697 l 198.547 
21.803 l h
198.547 21.803 m f
0 g
213.73 3.947 m 213.43 3.947 213.156 4.057 212.949 4.268 c 205.348 
11.865 l 197.746 4.268 l 197.539 4.057 197.254 3.947 196.965 3.947 c 
196.676 3.947 196.387 4.057 196.18 4.268 c 195.508 4.94 l 195.074 5.369 
195.074 6.072 195.508 6.506 c 203.109 14.108 l 195.508 21.705 l 195.074 
22.139 195.074 22.842 195.508 23.276 c 196.18 23.947 l 196.613 24.377 
197.316 24.377 197.746 23.947 c 205.348 16.346 l 212.949 23.947 l 
213.379 24.377 214.086 24.377 214.516 23.947 c 215.188 23.276 l 215.621 
22.842 215.621 22.139 215.188 21.705 c 207.59 14.108 l 215.188 6.506 l 
215.621 6.072 215.621 5.369 215.188 4.94 c 214.516 4.268 l 214.309 
4.057 214.035 3.947 213.73 3.947 c h
205.348 12.248 m 205.395 12.248 205.43 12.233 205.461 12.201 c 213.172 
4.49 l 213.316 4.346 213.523 4.268 213.73 4.268 c 213.941 4.268 214.148 
4.346 214.293 4.49 c 214.965 5.162 l 215.27 5.467 215.27 5.979 214.965 
6.283 c 207.254 13.994 l 207.188 14.057 207.188 14.154 207.254 14.217 c 
214.965 21.932 l 215.27 22.233 215.27 22.744 214.965 23.049 c 214.293 
23.721 l 213.988 24.026 213.477 24.026 213.172 23.721 c 205.461 16.01 l 
205.395 15.947 205.301 15.947 205.234 16.01 c 197.523 23.721 l 197.219 
24.026 196.707 24.026 196.402 23.721 c 195.73 23.049 l 195.43 22.744 
195.43 22.233 195.73 21.932 c 203.445 14.217 l 203.508 14.154 203.508 
14.057 203.445 13.994 c 195.73 6.283 l 195.43 5.979 195.43 5.467 195.73 
5.162 c 196.402 4.49 l 196.547 4.346 196.758 4.268 196.965 4.268 c 
197.172 4.268 197.379 4.346 197.523 4.49 c 205.234 12.201 l 205.27 
12.233 205.301 12.248 205.348 12.248 c h
205.348 12.248 m f
205.348 14.842 m 205.301 14.842 205.27 14.858 205.234 14.889 c 198.438 
21.69 l 198.371 21.752 198.371 21.85 198.438 21.912 c 198.5 21.979 
198.598 21.979 198.66 21.912 c 205.348 15.225 l 212.035 21.912 l 
212.102 21.979 212.195 21.979 212.262 21.912 c 212.324 21.85 212.324 
21.752 212.262 21.69 c 205.461 14.889 l 205.43 14.858 205.395 14.842 
205.348 14.842 c h
205.348 14.842 m f
196.965 4.842 m 196.82 4.842 196.676 4.889 196.562 5.002 c 196.262 
5.307 l 196.148 5.416 196.102 5.561 196.102 5.705 c 196.102 5.85 
196.164 6.01 196.262 6.108 c 204.227 14.108 l 196.262 22.072 l 196.035 
22.299 196.035 22.666 196.262 22.889 c 196.562 23.194 l 196.676 23.307 
196.82 23.354 196.965 23.354 c 196.965 23.354 l 197.125 23.354 197.27 
23.291 197.363 23.194 c 197.73 22.826 l 197.797 22.764 197.797 22.666 
197.73 22.604 c 197.668 22.537 197.57 22.537 197.508 22.604 c 197.141 
22.971 l 197.094 23.018 197.027 23.049 196.965 23.049 c 196.965 23.049 
l 196.898 23.049 196.836 23.018 196.789 22.971 c 196.484 22.666 l 
196.387 22.569 196.387 22.408 196.484 22.315 c 204.562 14.233 l 204.629 
14.17 204.629 14.072 204.562 14.01 c 196.484 5.932 l 196.438 5.881 
196.402 5.819 196.402 5.752 c 196.402 5.69 196.438 5.627 196.484 5.576 
c 196.789 5.276 l 196.883 5.178 197.043 5.178 197.141 5.276 c 205.219 
13.354 l 205.285 13.416 205.379 13.416 205.445 13.354 c 213.523 5.276 l 
213.621 5.178 213.781 5.178 213.875 5.276 c 214.18 5.576 l 214.277 
5.674 214.277 5.834 214.18 5.932 c 206.102 14.01 l 206.035 14.072 
206.035 14.17 206.102 14.233 c 214.18 22.315 l 214.227 22.362 214.262 
22.428 214.262 22.49 c 214.262 22.553 214.227 22.619 214.18 22.666 c 
213.875 22.971 l 213.781 23.065 213.621 23.065 213.523 22.971 c 213.141 
22.604 l 213.074 22.537 212.98 22.537 212.914 22.604 c 212.852 22.666 
212.852 22.764 212.914 22.826 c 213.285 23.194 l 213.492 23.401 213.875 
23.416 214.102 23.194 c 214.402 22.889 l 214.516 22.779 214.562 22.635 
214.562 22.49 c 214.562 22.33 214.5 22.186 214.402 22.088 c 206.469 
14.108 l 214.438 6.139 l 214.66 5.912 214.66 5.545 214.438 5.322 c 
214.133 5.018 l 213.906 4.795 213.539 4.795 213.316 5.018 c 205.348 
12.987 l 197.379 5.018 l 197.27 4.904 197.109 4.842 196.965 4.842 c h
196.965 4.842 m f
0.921569 0.027451 0.101961 rg
209.348 11.877 m 209.02 13.502 208.113 14.565 206.473 15.487 c 203.504 
17.049 198.332 17.987 192.316 17.987 c 180.723 17.987 173.16 14.393 
173.16 8.83 c 173.16 3.424 180.566 0.002 192.238 0.002 c 202.52 0.002 
209.02 2.393 209.832 6.502 c 202.926 6.502 l 201.785 3.815 198.238 
2.471 192.41 2.471 c 184.832 2.471 180.316 4.862 180.316 8.83 c 180.316 
13.018 184.754 15.518 192.238 15.518 c 198.004 15.518 201.613 14.205 
202.441 11.877 c 209.348 11.877 l h
209.348 11.877 m f
Q
showpage
%%Trailer
count op_count sub {pop} repeat
countdictstack dict_count sub {end} repeat
cairo_eps_state restore
%%EOF
