<?xml version="1.0" encoding="UTF-8" standalone="no" ?>
<!DOCTYPE svg PUBLIC "-//W3C//DTD SVG 1.1//EN" "http://www.w3.org/Graphics/SVG/1.1/DTD/svg11.dtd">
<svg xmlns="http://www.w3.org/2000/svg" xmlns:xlink="http://www.w3.org/1999/xlink" version="1.1" width="428.92" height="138.21199999999996" xml:space="preserve">
<desc>Created with Fabric.js 1.6.0-rc.1</desc>
<defs></defs>
<g style="stroke: none; stroke-width: 1; stroke-dasharray: none; stroke-linecap: butt; stroke-linejoin: miter; stroke-miterlimit: 10; fill: none; fill-rule: nonzero; opacity: 1;" transform="translate(10 10) scale(0.23 0.23)" >
  <path d="M 29.371 274.699 L 4.02 252.967 c 1.169 -1.365 117.188 -136.687 141.325 -163.988 c 13.576 -15.357 34.424 -21.235 51.877 -14.627 c 17.489 6.621 27.93 24.189 27.93 46.992 h -33.391 c 0 -4.015 -0.62 -13.589 -6.362 -15.763 c -3.782 -1.435 -10.163 0.002 -15.036 5.514 C 146.391 138.209 30.539 273.338 29.371 274.699 z" style="stroke: none; stroke-width: 1; stroke-dasharray: none; stroke-linecap: butt; stroke-linejoin: miter; stroke-miterlimit: 10; fill: #444242; fill-rule: nonzero; opacity: 1;" transform=" matrix(1 0 0 1 0 0) " stroke-linecap="round" />
  <path d="M 482.629 274.699 c -1.168 -1.362 -117.02 -136.491 -140.99 -163.603 c -4.874 -5.514 -11.256 -6.949 -15.037 -5.515 c -5.742 2.174 -6.362 11.748 -6.362 15.763 h -33.391 c 0 -22.802 10.44 -40.37 27.93 -46.992 c 17.454 -6.606 38.302 -0.729 51.878 14.628 c 24.137 27.3 140.156 162.622 141.324 163.987 L 482.629 274.699 z" style="stroke: none; stroke-width: 1; stroke-dasharray: none; stroke-linecap: butt; stroke-linejoin: miter; stroke-miterlimit: 10; fill: #3A3839; fill-rule: nonzero; opacity: 1;" transform=" matrix(1 0 0 1 0 0) " stroke-linecap="round" />
  <path d="M 375.652 440.329 c -39.007 0 -67.604 -8.412 -87.426 -25.716 c -17.496 -15.275 -24.04 -33.949 -28.818 -47.584 c -1.016 -2.899 -2.259 -6.449 -3.408 -9.146 c -1.149 2.697 -2.392 6.245 -3.409 9.146 c -4.777 13.635 -11.322 32.308 -28.818 47.584 c -19.822 17.304 -48.419 25.716 -87.426 25.716 c -35.482 0 -69.377 -11.745 -95.442 -33.071 C 14.91 385.989 0 357.495 0 329.086 v -81.948 h 512 v 81.948 c 0 28.409 -14.91 56.903 -40.905 78.172 C 445.029 428.584 411.134 440.329 375.652 440.329 z" style="stroke: none; stroke-width: 1; stroke-dasharray: none; stroke-linecap: butt; stroke-linejoin: miter; stroke-miterlimit: 10; fill: #BCE8F7; fill-rule: nonzero; opacity: 1;" transform=" matrix(1 0 0 1 0 0) " stroke-linecap="round" />
  <path d="M 256 247.138 v 110.746 c 1.149 2.697 2.392 6.245 3.408 9.146 c 4.777 13.635 11.322 32.308 28.818 47.584 c 19.822 17.304 48.418 25.716 87.426 25.716 c 35.482 0 69.377 -11.745 95.442 -33.071 C 497.09 385.989 512 357.495 512 329.086 v -81.948 H 256 z" style="stroke: none; stroke-width: 1; stroke-dasharray: none; stroke-linecap: butt; stroke-linejoin: miter; stroke-miterlimit: 10; fill: #AFD9E8; fill-rule: nonzero; opacity: 1;" transform=" matrix(1 0 0 1 0 0) " stroke-linecap="round" />
  <rect x="0" y="247.14" rx="0" ry="0" width="512" height="31.12" style="stroke: none; stroke-width: 1; stroke-dasharray: none; stroke-linecap: butt; stroke-linejoin: miter; stroke-miterlimit: 10; fill: #61A2EF; fill-rule: nonzero; opacity: 1;" transform=" matrix(1 0 0 1 0 0) "/>
  <rect x="256" y="247.14" rx="0" ry="0" width="256" height="31.12" style="stroke: none; stroke-width: 1; stroke-dasharray: none; stroke-linecap: butt; stroke-linejoin: miter; stroke-miterlimit: 10; fill: #528ACF; fill-rule: nonzero; opacity: 1;" transform=" matrix(1 0 0 1 0 0) "/>
  <path d="M 420.423 402.819 l -10.479 -31.704 c 18.916 -6.252 34.804 -18.773 42.498 -33.494 l 29.591 15.469 C 470.241 375.649 447.784 393.775 420.423 402.819 z" style="stroke: none; stroke-width: 1; stroke-dasharray: none; stroke-linecap: butt; stroke-linejoin: miter; stroke-miterlimit: 10; fill: #FFFFFF; fill-rule: nonzero; opacity: 1;" transform=" matrix(1 0 0 1 0 0) " stroke-linecap="round" />
</g>
  <g transform="translate(42.01 94.75) scale(0.71 0.71)">
   <text font-family="ADAMCG PRO" font-size="40" font-weight="normal" style="stroke: none; stroke-width: 1; stroke-dasharray: none; stroke-linecap: butt; stroke-linejoin: miter; stroke-miterlimit: 10; fill: #b32f26; fill-rule: nonzero; opacity: 1;" ><tspan x="-30.5" y="8.98" style="stroke: none; stroke-width: 0; stroke-dasharray: none; stroke-linecap: butt; stroke-linejoin: miter; stroke-miterlimit: 4; fill: #b32f26; fill-rule: ; opacity: 1;">C</tspan><tspan x="-3.5" y="8.98" style="stroke: none; stroke-width: 0; stroke-dasharray: none; stroke-linecap: butt; stroke-linejoin: miter; stroke-miterlimit: 4; fill: #b32f26; fill-rule: ; opacity: 1;">O</tspan></text>
 </g>
  <g transform="translate(98.11 94.34) scale(0.71 0.71)">
   <text font-family="ADAMCG PRO" font-size="40" font-weight="normal" style="stroke: none; stroke-width: 1; stroke-dasharray: none; stroke-linecap: butt; stroke-linejoin: miter; stroke-miterlimit: 10; fill: #000000; fill-rule: nonzero; opacity: 1;" ><tspan x="-25" y="8.98" style="stroke: none; stroke-width: 0; stroke-dasharray: none; stroke-linecap: butt; stroke-linejoin: miter; stroke-miterlimit: 4; fill: #000000; fill-rule: ; opacity: 1;">d</tspan><tspan x="2" y="8.98" style="stroke: none; stroke-width: 0; stroke-dasharray: none; stroke-linecap: butt; stroke-linejoin: miter; stroke-miterlimit: 4; fill: #000000; fill-rule: ; opacity: 1;">e</tspan></text>
 </g>
  <g transform="translate(280.92 61.75) scale(0.92 1)">
   <text font-family="ADAMCG PRO" font-size="40" font-weight="normal" style="stroke: none; stroke-width: 1; stroke-dasharray: none; stroke-linecap: butt; stroke-linejoin: miter; stroke-miterlimit: 10; fill: #000000; fill-rule: nonzero; opacity: 1;" ><tspan x="-150.5" y="8.98" style="stroke: none; stroke-width: 0; stroke-dasharray: none; stroke-linecap: butt; stroke-linejoin: miter; stroke-miterlimit: 4; fill: #000000; fill-rule: ; opacity: 1;">P</tspan><tspan x="-128.5" y="8.98" style="stroke: none; stroke-width: 0; stroke-dasharray: none; stroke-linecap: butt; stroke-linejoin: miter; stroke-miterlimit: 4; fill: #000000; fill-rule: ; opacity: 1;">r</tspan><tspan x="-102.5" y="8.98" style="stroke: none; stroke-width: 0; stroke-dasharray: none; stroke-linecap: butt; stroke-linejoin: miter; stroke-miterlimit: 4; fill: #000000; fill-rule: ; opacity: 1;">o</tspan><tspan x="-68.5" y="8.98" style="stroke: none; stroke-width: 0; stroke-dasharray: none; stroke-linecap: butt; stroke-linejoin: miter; stroke-miterlimit: 4; fill: #000000; fill-rule: ; opacity: 1;">g</tspan><tspan x="-40.5" y="8.98" style="stroke: none; stroke-width: 0; stroke-dasharray: none; stroke-linecap: butt; stroke-linejoin: miter; stroke-miterlimit: 4; fill: #000000; fill-rule: ; opacity: 1;">r</tspan><tspan x="-14.5" y="8.98" style="stroke: none; stroke-width: 0; stroke-dasharray: none; stroke-linecap: butt; stroke-linejoin: miter; stroke-miterlimit: 4; fill: #000000; fill-rule: ; opacity: 1;">a</tspan><tspan x="13.5" y="8.98" style="stroke: none; stroke-width: 0; stroke-dasharray: none; stroke-linecap: butt; stroke-linejoin: miter; stroke-miterlimit: 4; fill: #000000; fill-rule: ; opacity: 1;">m</tspan><tspan x="47.5" y="8.98" style="stroke: none; stroke-width: 0; stroke-dasharray: none; stroke-linecap: butt; stroke-linejoin: miter; stroke-miterlimit: 4; fill: #000000; fill-rule: ; opacity: 1;">m</tspan><tspan x="81.5" y="8.98" style="stroke: none; stroke-width: 0; stroke-dasharray: none; stroke-linecap: butt; stroke-linejoin: miter; stroke-miterlimit: 4; fill: #000000; fill-rule: ; opacity: 1;">i</tspan><tspan x="92.5" y="8.98" style="stroke: none; stroke-width: 0; stroke-dasharray: none; stroke-linecap: butt; stroke-linejoin: miter; stroke-miterlimit: 4; fill: #000000; fill-rule: ; opacity: 1;">n</tspan><tspan x="122.5" y="8.98" style="stroke: none; stroke-width: 0; stroke-dasharray: none; stroke-linecap: butt; stroke-linejoin: miter; stroke-miterlimit: 4; fill: #000000; fill-rule: ; opacity: 1;">g</tspan></text>
 </g>
  <g transform="translate(354.52 98.02) scale(0.81 0.72)">
   <text font-family="Lobster 13" font-size="40" font-weight="normal" style="stroke: none; stroke-width: 1; stroke-dasharray: none; stroke-linecap: butt; stroke-linejoin: miter; stroke-miterlimit: 10; fill: #000000; fill-rule: nonzero; opacity: 1;" ><tspan x="-73" y="8.98" style="stroke: none; stroke-width: 0; stroke-dasharray: none; stroke-linecap: butt; stroke-linejoin: miter; stroke-miterlimit: 4; fill: #000000; fill-rule: ; opacity: 1;">l</tspan><tspan x="-62" y="8.98" style="stroke: none; stroke-width: 0; stroke-dasharray: none; stroke-linecap: butt; stroke-linejoin: miter; stroke-miterlimit: 4; fill: #000000; fill-rule: ; opacity: 1;">a</tspan><tspan x="-42" y="8.98" style="stroke: none; stroke-width: 0; stroke-dasharray: none; stroke-linecap: butt; stroke-linejoin: miter; stroke-miterlimit: 4; fill: #000000; fill-rule: ; opacity: 1;">n</tspan><tspan x="-22" y="8.98" style="stroke: none; stroke-width: 0; stroke-dasharray: none; stroke-linecap: butt; stroke-linejoin: miter; stroke-miterlimit: 4; fill: #000000; fill-rule: ; opacity: 1;">g</tspan><tspan x="-2" y="8.98" style="stroke: none; stroke-width: 0; stroke-dasharray: none; stroke-linecap: butt; stroke-linejoin: miter; stroke-miterlimit: 4; fill: #000000; fill-rule: ; opacity: 1;">u</tspan><tspan x="19" y="8.98" style="stroke: none; stroke-width: 0; stroke-dasharray: none; stroke-linecap: butt; stroke-linejoin: miter; stroke-miterlimit: 4; fill: #000000; fill-rule: ; opacity: 1;">a</tspan><tspan x="39" y="8.98" style="stroke: none; stroke-width: 0; stroke-dasharray: none; stroke-linecap: butt; stroke-linejoin: miter; stroke-miterlimit: 4; fill: #000000; fill-rule: ; opacity: 1;">g</tspan><tspan x="59" y="8.98" style="stroke: none; stroke-width: 0; stroke-dasharray: none; stroke-linecap: butt; stroke-linejoin: miter; stroke-miterlimit: 4; fill: #000000; fill-rule: ; opacity: 1;">e</tspan></text>
 </g>
<g style="stroke: none; stroke-width: 1; stroke-dasharray: none; stroke-linecap: butt; stroke-linejoin: miter; stroke-miterlimit: 10; fill: none; fill-rule: nonzero; opacity: 1;" transform="translate(253.98000000000002 82.06) scale(0.05 0.05)" >
  <path d="M 304.5 254.15 l 192.8 -192.8 c 9.2 -9.2 9.2 -24.4 0 -33.6 l -16.8 -16.8 c -9.2 -9.2 -24.4 -9.2 -33.6 0 l -192.8 192.8 L 61.3 10.95 c -9.2 -9.2 -24.4 -9.2 -33.6 0 l -16.8 16.8 c -9.2 9.2 -9.2 24.4 0 33.6 l 192.8 192.8 L 10.9 446.95 c -9.2 9.2 -9.2 24.4 0 33.6 l 16.8 16.8 c 9.2 9.2 24.4 9.2 33.6 0 l 192.8 -192.8 l 192.8 192.8 c 9.2 9.2 24.4 9.2 33.6 0 l 16.8 -16.8 c 9.2 -9.2 9.2 -24.4 0 -33.6 L 304.5 254.15 z" style="stroke: none; stroke-width: 1; stroke-dasharray: none; stroke-linecap: butt; stroke-linejoin: miter; stroke-miterlimit: 10; fill: #DF5C4E; fill-rule: nonzero; opacity: 1;" transform=" matrix(1 0 0 1 0 0) " stroke-linecap="round" />
  <path d="M 84.1 61.75 l 170 170 l 170 -170 l 22.4 -22.4 l 9.2 -9.2 c 4 -4 10.8 -4 14.8 0 l 7.6 7.6 c 4 4 4 10.8 0 14.8 l -202 202 l 202 202 c 4 4 4 10.8 0 14.8 l -7.6 7.6 c -4 4 -10.8 4 -14.8 0 l -202 -202 l -202 202 c -4 4 -10.8 4 -14.8 0 l -7.6 -7.6 c -4 -4 -4 -10.8 0 -14.8 l 202 -202 l -202 -202 c -4 -4 -4 -10.8 0 -14.8 l 7.6 -7.6 c 4 -4 10.8 -4 14.8 0 l 9.2 9.2 L 84.1 61.75 z" style="stroke: none; stroke-width: 1; stroke-dasharray: none; stroke-linecap: butt; stroke-linejoin: miter; stroke-miterlimit: 10; fill: #E36D60; fill-rule: nonzero; opacity: 1;" transform=" matrix(1 0 0 1 0 0) " stroke-linecap="round" />
  <path d="M 463.7 508.15 c -7.6 0 -14.4 -2.8 -19.6 -8 l -190 -190 l -190 190 c -5.2 5.2 -12.4 8 -19.6 8 s -14.4 -2.8 -19.6 -8 l -16.8 -16.8 c -10.8 -10.8 -10.8 -28.4 0 -39.2 l 190 -190 l -190 -190 c -10.8 -10.8 -10.8 -28.4 0 -39.2 l 16.8 -16.8 c 10.8 -10.8 28.4 -10.8 39.2 0 l 190 190 l 190 -190 c 10.8 -10.8 28.4 -10.8 39.2 0 l 16.8 16.8 c 10.8 10.8 10.8 28.4 0 39.2 l -190 190 l 190 190 c 10.8 10.8 10.8 28.4 0 39.2 l -16.8 16.8 C 478.1 505.35 471.3 508.15 463.7 508.15 z M 254.1 300.55 c 1.2 0 2 0.4 2.8 1.2 l 192.8 192.8 c 3.6 3.6 8.8 5.6 14 5.6 s 10.4 -2 14 -5.6 l 16.8 -16.8 c 7.6 -7.6 7.6 -20.4 0 -28 l -192.8 -192.8 c -1.6 -1.6 -1.6 -4 0 -5.6 l 192.8 -192.8 c 7.6 -7.6 7.6 -20.4 0 -28 l -16.8 -16.8 c -7.6 -7.6 -20.4 -7.6 -28 0 l -192.8 192.8 c -1.6 1.6 -4 1.6 -5.6 0 L 58.5 13.75 c -7.6 -7.6 -20.4 -7.6 -28 0 l -16.8 16.8 c -7.6 7.6 -7.6 20.4 0 28 l 192.8 192.8 c 1.6 1.6 1.6 4 0 5.6 L 13.7 449.75 c -7.6 7.6 -7.6 20.4 0 28 l 16.8 16.8 c 3.6 3.6 8.8 5.6 14 5.6 s 10.4 -2 14 -5.6 l 192.8 -192.8 C 252.1 300.95 252.9 300.55 254.1 300.55 z" style="stroke: none; stroke-width: 1; stroke-dasharray: none; stroke-linecap: butt; stroke-linejoin: miter; stroke-miterlimit: 10; fill: rgb(0,0,0); fill-rule: nonzero; opacity: 1;" transform=" matrix(1 0 0 1 0 0) " stroke-linecap="round" />
  <path d="M 254.1 235.75 c -1.2 0 -2 -0.4 -2.8 -1.2 l -170 -170 c -1.6 -1.6 -1.6 -4 0 -5.6 s 4 -1.6 5.6 0 l 167.2 167.2 l 167.2 -167.2 c 1.6 -1.6 4 -1.6 5.6 0 s 1.6 4 0 5.6 l -170 170 C 256.1 235.35 255.3 235.75 254.1 235.75 z" style="stroke: none; stroke-width: 1; stroke-dasharray: none; stroke-linecap: butt; stroke-linejoin: miter; stroke-miterlimit: 10; fill: rgb(0,0,0); fill-rule: nonzero; opacity: 1;" transform=" matrix(1 0 0 1 0 0) " stroke-linecap="round" />
  <path d="M 44.5 485.75 c -3.6 0 -7.2 -1.2 -10 -4 l -7.6 -7.6 c -2.8 -2.8 -4 -6.4 -4 -10 s 1.6 -7.6 4 -10 l 199.2 -200 L 26.9 54.95 c -5.6 -5.6 -5.6 -14.8 0 -20.4 l 7.6 -7.6 c 2.8 -2.8 6.4 -4 10 -4 l 0 0 c 4 0 7.6 1.6 10 4 l 9.2 9.2 c 1.6 1.6 1.6 4 0 5.6 s -4 1.6 -5.6 0 l -9.2 -9.2 c -1.2 -1.2 -2.8 -2 -4.4 -2 l 0 0 c -1.6 0 -3.2 0.8 -4.4 2 l -7.6 7.6 c -2.4 2.4 -2.4 6.4 0 8.8 l 202 202 c 1.6 1.6 1.6 4 0 5.6 l -202 202 c -1.2 1.2 -2 2.8 -2 4.4 s 0.8 3.2 2 4.4 l 7.6 7.6 c 2.4 2.4 6.4 2.4 8.8 0 l 202 -202 c 1.6 -1.6 4 -1.6 5.6 0 l 202 202 c 2.4 2.4 6.4 2.4 8.8 0 l 7.6 -7.6 c 2.4 -2.4 2.4 -6.4 0 -8.8 l -202 -202 c -1.6 -1.6 -1.6 -4 0 -5.6 l 202 -202 c 1.2 -1.2 2 -2.8 2 -4.4 s -0.8 -3.2 -2 -4.4 l -7.6 -7.6 c -2.4 -2.4 -6.4 -2.4 -8.8 0 l -9.6 9.2 c -1.6 1.6 -4 1.6 -5.6 0 s -1.6 -4 0 -5.6 l 9.2 -9.2 c 5.2 -5.2 14.8 -5.6 20.4 0 l 7.6 7.6 c 2.8 2.8 4 6.4 4 10 c 0 4 -1.6 7.6 -4 10 l -198.4 199.6 l 199.2 199.2 c 5.6 5.6 5.6 14.8 0 20.4 l -7.6 7.6 c -5.6 5.6 -14.8 5.6 -20.4 0 l -199.2 -199.2 L 54.9 481.35 C 52.1 484.15 48.1 485.75 44.5 485.75 z" style="stroke: none; stroke-width: 1; stroke-dasharray: none; stroke-linecap: butt; stroke-linejoin: miter; stroke-miterlimit: 10; fill: rgb(0,0,0); fill-rule: nonzero; opacity: 1;" transform=" matrix(1 0 0 1 0 0) " stroke-linecap="round" />
</g>
  <g transform="translate(257.96 102.5) scale(2.57 1)">
   <text font-family="ADAMCG PRO" font-size="40" font-weight="normal" style="stroke: none; stroke-width: 1; stroke-dasharray: none; stroke-linecap: butt; stroke-linejoin: miter; stroke-miterlimit: 10; fill: #eb071a; fill-rule: nonzero; opacity: 1;" ><tspan x="-13.5" y="8.98" style="stroke: none; stroke-width: 0; stroke-dasharray: none; stroke-linecap: butt; stroke-linejoin: miter; stroke-miterlimit: 4; fill: #eb071a; fill-rule: ; opacity: 1;">c</tspan></text>
 </g>
</svg>